%YAML 1.1
%TAG !u! tag:unity3d.com,2011:
--- !u!1045 &1
EditorBuildSettings:
  m_ObjectHideFlags: 0
  serializedVersion: 2
  m_Scenes:
  - enabled: 0
    path: 
    guid: 00000000000000000000000000000000
  - enabled: 1
    path: Assets/Scenes/Scene 1.unity
    guid: 9513cdf52d5c0ca44a22c701e8c44fc0
  - enabled: 1
    path: Assets/Scenes/SampleScene.unity
    guid: 5a1326c89f11d4546b5f2885d1f40510
  m_configObjects: {}
